BeautifulSoup==3.2.1
Ghost.py==0.2.3
chardet==2.3.0
cssselect==0.9.1
lxml==3.6.0
pdfminer==20140328
pdfquery==0.4.3
pyquery==1.2.13
requests==2.9.1
roman==2.0.0
selenium==2.53.2
six==1.10.0
wsgiref==0.1.2
